Описание предметной области: почта
Объекты:	Киев
			узел №4
			узел №5
			узел №6
		Днепропетровск
			узел №7
                        узел №8
                        узел №9
		Харьков
			узел №10
                        узел №11
                        узел №12
		Львов
			узел №1
                        узел №2
                        узел №3
		
		центральная база данных

Описание: узлы обмениваются пакетами, новыми или созданными ранее, перемещения пакетов
фиксируются центральной базой данных. В ней же хранится история пересылок
пакетов, точек их создания, промежуточных пунктов и конечных. Как-то так.